MIPS-Lite4/testlog.txt
WARNING: ./datapath/IM.v:11: $readmemh(code.dat): Not enough words in the file for the requested range [0:1024].
VCD info: dumpfile testWave.vcd opened for output.

----------------------------------------
PC:
         x
Instruction:
xxxxxxxxxxxxxxxxxxxxxxxxxxxxxxxx
----------------------------------------


----------------------------------------
Memory:
xxxxxxxx	xxxxxxxx	xxxxxxxx	xxxxxxxx	
xxxxxxxx	xxxxxxxx	xxxxxxxx	xxxxxxxx	
xxxxxxxx	xxxxxxxx	xxxxxxxx	xxxxxxxx	
xxxxxxxx	xxxxxxxx	xxxxxxxx	xxxxxxxx	
xxxxxxxx	xxxxxxxx	xxxxxxxx	xxxxxxxx	
xxxxxxxx	xxxxxxxx	xxxxxxxx	xxxxxxxx	
xxxxxxxx	xxxxxxxx	xxxxxxxx	xxxxxxxx	
xxxxxxxx	xxxxxxxx	xxxxxxxx	xxxxxxxx	
----------------------------------------

----------------------------------------
Regs:
xxxxxxxx	xxxxxxxx	xxxxxxxx	xxxxxxxx	
xxxxxxxx	xxxxxxxx	xxxxxxxx	xxxxxxxx	
xxxxxxxx	xxxxxxxx	xxxxxxxx	xxxxxxxx	
xxxxxxxx	xxxxxxxx	xxxxxxxx	xxxxxxxx	
xxxxxxxx	xxxxxxxx	xxxxxxxx	xxxxxxxx	
xxxxxxxx	xxxxxxxx	xxxxxxxx	xxxxxxxx	
xxxxxxxx	xxxxxxxx	xxxxxxxx	xxxxxxxx	
xxxxxxxx	xxxxxxxx	xxxxxxxx	xxxxxxxx	
----------------------------------------


********************************************************************************
********************************************************************************


----------------------------------------
Regs:
00000000	00000000	00000000	00000000	
00000000	00000000	00000000	00000000	
00000000	00000000	00000000	00000000	
00000000	00000000	00000000	00000000	
00000000	00000000	00000000	00000000	
00000000	00000000	00000000	00000000	
00000000	00000000	00000000	00000000	
00000000	00000000	00000000	00000000	
----------------------------------------

----------------------------------------
Memory:
00000000	00000000	00000000	00000000	
00000000	00000000	00000000	00000000	
00000000	00000000	00000000	00000000	
00000000	00000000	00000000	00000000	
00000000	00000000	00000000	00000000	
00000000	00000000	00000000	00000000	
00000000	00000000	00000000	00000000	
00000000	00000000	00000000	00000000	
----------------------------------------

----------------------------------------
PC:
         1
Instruction:
00100000001000010000000000000001
----------------------------------------



********************************************************************************
********************************************************************************


----------------------------------------
PC:
         2
Instruction:
00100000001000110000000000000010
----------------------------------------


----------------------------------------
Memory:
00000000	00000000	00000000	00000000	
00000000	00000000	00000000	00000000	
00000000	00000000	00000000	00000000	
00000000	00000000	00000000	00000000	
00000000	00000000	00000000	00000000	
00000000	00000000	00000000	00000000	
00000000	00000000	00000000	00000000	
00000000	00000000	00000000	00000000	
----------------------------------------

----------------------------------------
Regs:
00000000	00000001	00000000	00000000	
00000000	00000000	00000000	00000000	
00000000	00000000	00000000	00000000	
00000000	00000000	00000000	00000000	
00000000	00000000	00000000	00000000	
00000000	00000000	00000000	00000000	
00000000	00000000	00000000	00000000	
00000000	00000000	00000000	00000000	
----------------------------------------


********************************************************************************
********************************************************************************


----------------------------------------
Regs:
00000000	00000001	00000000	00000003	
00000000	00000000	00000000	00000000	
00000000	00000000	00000000	00000000	
00000000	00000000	00000000	00000000	
00000000	00000000	00000000	00000000	
00000000	00000000	00000000	00000000	
00000000	00000000	00000000	00000000	
00000000	00000000	00000000	00000000	
----------------------------------------

----------------------------------------
Memory:
00000000	00000000	00000000	00000000	
00000000	00000000	00000000	00000000	
00000000	00000000	00000000	00000000	
00000000	00000000	00000000	00000000	
00000000	00000000	00000000	00000000	
00000000	00000000	00000000	00000000	
00000000	00000000	00000000	00000000	
00000000	00000000	00000000	00000000	
----------------------------------------

----------------------------------------
PC:
         3
Instruction:
00000000011000010001000000100011
----------------------------------------



********************************************************************************
********************************************************************************


----------------------------------------
PC:
         4
Instruction:
00000000001000110010000000100001
----------------------------------------


----------------------------------------
Memory:
00000000	00000000	00000000	00000000	
00000000	00000000	00000000	00000000	
00000000	00000000	00000000	00000000	
00000000	00000000	00000000	00000000	
00000000	00000000	00000000	00000000	
00000000	00000000	00000000	00000000	
00000000	00000000	00000000	00000000	
00000000	00000000	00000000	00000000	
----------------------------------------

----------------------------------------
Regs:
00000000	00000001	00000002	00000003	
00000000	00000000	00000000	00000000	
00000000	00000000	00000000	00000000	
00000000	00000000	00000000	00000000	
00000000	00000000	00000000	00000000	
00000000	00000000	00000000	00000000	
00000000	00000000	00000000	00000000	
00000000	00000000	00000000	00000000	
----------------------------------------


********************************************************************************
********************************************************************************


----------------------------------------
Regs:
00000000	00000001	00000002	00000003	
00000004	00000000	00000000	00000000	
00000000	00000000	00000000	00000000	
00000000	00000000	00000000	00000000	
00000000	00000000	00000000	00000000	
00000000	00000000	00000000	00000000	
00000000	00000000	00000000	00000000	
00000000	00000000	00000000	00000000	
----------------------------------------

----------------------------------------
Memory:
00000000	00000000	00000000	00000000	
00000000	00000000	00000000	00000000	
00000000	00000000	00000000	00000000	
00000000	00000000	00000000	00000000	
00000000	00000000	00000000	00000000	
00000000	00000000	00000000	00000000	
00000000	00000000	00000000	00000000	
00000000	00000000	00000000	00000000	
----------------------------------------

----------------------------------------
PC:
         5
Instruction:
00110100100001010011111100000000
----------------------------------------



********************************************************************************
********************************************************************************


----------------------------------------
PC:
         6
Instruction:
00111100000001100011111100111111
----------------------------------------


----------------------------------------
Memory:
00000000	00000000	00000000	00000000	
00000000	00000000	00000000	00000000	
00000000	00000000	00000000	00000000	
00000000	00000000	00000000	00000000	
00000000	00000000	00000000	00000000	
00000000	00000000	00000000	00000000	
00000000	00000000	00000000	00000000	
00000000	00000000	00000000	00000000	
----------------------------------------

----------------------------------------
Regs:
00000000	00000001	00000002	00000003	
00000004	00003f04	00000000	00000000	
00000000	00000000	00000000	00000000	
00000000	00000000	00000000	00000000	
00000000	00000000	00000000	00000000	
00000000	00000000	00000000	00000000	
00000000	00000000	00000000	00000000	
00000000	00000000	00000000	00000000	
----------------------------------------


********************************************************************************
********************************************************************************


----------------------------------------
Regs:
00000000	00000001	00000002	00000003	
00000004	00003f04	3f3f0000	00000000	
00000000	00000000	00000000	00000000	
00000000	00000000	00000000	00000000	
00000000	00000000	00000000	00000000	
00000000	00000000	00000000	00000000	
00000000	00000000	00000000	00000000	
00000000	00000000	00000000	00000000	
----------------------------------------

----------------------------------------
Memory:
00000000	00000000	00000000	00000000	
00000000	00000000	00000000	00000000	
00000000	00000000	00000000	00000000	
00000000	00000000	00000000	00000000	
00000000	00000000	00000000	00000000	
00000000	00000000	00000000	00000000	
00000000	00000000	00000000	00000000	
00000000	00000000	00000000	00000000	
----------------------------------------

----------------------------------------
PC:
         7
Instruction:
00100000111001110000000000000001
----------------------------------------



********************************************************************************
********************************************************************************


----------------------------------------
PC:
         8
Instruction:
00010000001001110000000000000100
----------------------------------------


----------------------------------------
Memory:
00000000	00000000	00000000	00000000	
00000000	00000000	00000000	00000000	
00000000	00000000	00000000	00000000	
00000000	00000000	00000000	00000000	
00000000	00000000	00000000	00000000	
00000000	00000000	00000000	00000000	
00000000	00000000	00000000	00000000	
00000000	00000000	00000000	00000000	
----------------------------------------

----------------------------------------
Regs:
00000000	00000001	00000002	00000003	
00000004	00003f04	3f3f0000	00000001	
00000000	00000000	00000000	00000000	
00000000	00000000	00000000	00000000	
00000000	00000000	00000000	00000000	
00000000	00000000	00000000	00000000	
00000000	00000000	00000000	00000000	
00000000	00000000	00000000	00000000	
----------------------------------------


********************************************************************************
********************************************************************************


----------------------------------------
Regs:
00000000	00000001	00000002	00000003	
00000004	00003f04	3f3f0000	00000001	
00000000	00000000	00000000	00000000	
00000000	00000000	00000000	00000000	
00000000	00000000	00000000	00000000	
00000000	00000000	00000000	00000000	
00000000	00000000	00000000	00000000	
00000000	00000000	00000000	00000000	
----------------------------------------

----------------------------------------
Memory:
00000000	00000000	00000000	00000000	
00000000	00000000	00000000	00000000	
00000000	00000000	00000000	00000000	
00000000	00000000	00000000	00000000	
00000000	00000000	00000000	00000000	
00000000	00000000	00000000	00000000	
00000000	00000000	00000000	00000000	
00000000	00000000	00000000	00000000	
----------------------------------------

----------------------------------------
PC:
        13
Instruction:
00000000001000100100100000101010
----------------------------------------



********************************************************************************
********************************************************************************


----------------------------------------
PC:
        14
Instruction:
00001000000000000000000000001001
----------------------------------------


----------------------------------------
Memory:
00000000	00000000	00000000	00000000	
00000000	00000000	00000000	00000000	
00000000	00000000	00000000	00000000	
00000000	00000000	00000000	00000000	
00000000	00000000	00000000	00000000	
00000000	00000000	00000000	00000000	
00000000	00000000	00000000	00000000	
00000000	00000000	00000000	00000000	
----------------------------------------

----------------------------------------
Regs:
00000000	00000001	00000002	00000003	
00000004	00003f04	3f3f0000	00000001	
00000000	00000001	00000000	00000000	
00000000	00000000	00000000	00000000	
00000000	00000000	00000000	00000000	
00000000	00000000	00000000	00000000	
00000000	00000000	00000000	00000000	
00000000	00000000	00000000	00000000	
----------------------------------------


********************************************************************************
********************************************************************************


----------------------------------------
Regs:
00000000	00000001	00000002	00000003	
00000004	00003f04	3f3f0000	00000001	
00000000	00000001	00000000	00000000	
00000000	00000000	00000000	00000000	
00000000	00000000	00000000	00000000	
00000000	00000000	00000000	00000000	
00000000	00000000	00000000	00000000	
00000000	00000000	00000000	00000000	
----------------------------------------

----------------------------------------
Memory:
00000000	00000000	00000000	00000000	
00000000	00000000	00000000	00000000	
00000000	00000000	00000000	00000000	
00000000	00000000	00000000	00000000	
00000000	00000000	00000000	00000000	
00000000	00000000	00000000	00000000	
00000000	00000000	00000000	00000000	
00000000	00000000	00000000	00000000	
----------------------------------------

----------------------------------------
PC:
         9
Instruction:
10101100001001010000000000000111
----------------------------------------



********************************************************************************
********************************************************************************


----------------------------------------
PC:
        10
Instruction:
10001100010010000000000000000110
----------------------------------------


----------------------------------------
Memory:
00000000	00000000	00003f04	00000000	
00000000	00000000	00000000	00000000	
00000000	00000000	00000000	00000000	
00000000	00000000	00000000	00000000	
00000000	00000000	00000000	00000000	
00000000	00000000	00000000	00000000	
00000000	00000000	00000000	00000000	
00000000	00000000	00000000	00000000	
----------------------------------------

----------------------------------------
Regs:
00000000	00000001	00000002	00000003	
00000004	00003f04	3f3f0000	00000001	
00000000	00000001	00000000	00000000	
00000000	00000000	00000000	00000000	
00000000	00000000	00000000	00000000	
00000000	00000000	00000000	00000000	
00000000	00000000	00000000	00000000	
00000000	00000000	00000000	00000000	
----------------------------------------


********************************************************************************
********************************************************************************


----------------------------------------
Regs:
00000000	00000001	00000002	00000003	
00000004	00003f04	3f3f0000	00000001	
00003f04	00000001	00000000	00000000	
00000000	00000000	00000000	00000000	
00000000	00000000	00000000	00000000	
00000000	00000000	00000000	00000000	
00000000	00000000	00000000	00000000	
00000000	00000000	00000000	00000000	
----------------------------------------

----------------------------------------
Memory:
00000000	00000000	00003f04	00000000	
00000000	00000000	00000000	00000000	
00000000	00000000	00000000	00000000	
00000000	00000000	00000000	00000000	
00000000	00000000	00000000	00000000	
00000000	00000000	00000000	00000000	
00000000	00000000	00000000	00000000	
00000000	00000000	00000000	00000000	
----------------------------------------

----------------------------------------
PC:
        11
Instruction:
00001100000000000000000000001111
----------------------------------------



********************************************************************************
********************************************************************************


----------------------------------------
PC:
        15
Instruction:
00101000011010010000000000000010
----------------------------------------


----------------------------------------
Memory:
00000000	00000000	00003f04	00000000	
00000000	00000000	00000000	00000000	
00000000	00000000	00000000	00000000	
00000000	00000000	00000000	00000000	
00000000	00000000	00000000	00000000	
00000000	00000000	00000000	00000000	
00000000	00000000	00000000	00000000	
00000000	00000000	00000000	00000000	
----------------------------------------

----------------------------------------
Regs:
00000000	00000001	00000002	00000003	
00000004	00003f04	3f3f0000	00000001	
00003f04	00000001	00000000	00000000	
00000000	00000000	00000000	00000000	
00000000	00000000	00000000	00000000	
00000000	00000000	00000000	00000000	
00000000	00000000	00000000	00000000	
00000000	00000000	00000000	00000030	
----------------------------------------


********************************************************************************
********************************************************************************


----------------------------------------
Regs:
00000000	00000001	00000002	00000003	
00000004	00003f04	3f3f0000	00000001	
00003f04	00000000	00000000	00000000	
00000000	00000000	00000000	00000000	
00000000	00000000	00000000	00000000	
00000000	00000000	00000000	00000000	
00000000	00000000	00000000	00000000	
00000000	00000000	00000000	00000030	
----------------------------------------

----------------------------------------
Memory:
00000000	00000000	00003f04	00000000	
00000000	00000000	00000000	00000000	
00000000	00000000	00000000	00000000	
00000000	00000000	00000000	00000000	
00000000	00000000	00000000	00000000	
00000000	00000000	00000000	00000000	
00000000	00000000	00000000	00000000	
00000000	00000000	00000000	00000000	
----------------------------------------

----------------------------------------
PC:
        16
Instruction:
00000011111000000000000000001000
----------------------------------------



********************************************************************************
********************************************************************************


----------------------------------------
PC:
        12
Instruction:
00001100000000000000000000010001
----------------------------------------


----------------------------------------
Memory:
00000000	00000000	00003f04	00000000	
00000000	00000000	00000000	00000000	
00000000	00000000	00000000	00000000	
00000000	00000000	00000000	00000000	
00000000	00000000	00000000	00000000	
00000000	00000000	00000000	00000000	
00000000	00000000	00000000	00000000	
00000000	00000000	00000000	00000000	
----------------------------------------

----------------------------------------
Regs:
00000000	00000001	00000002	00000003	
00000004	00003f04	3f3f0000	00000001	
00003f04	00000000	00000000	00000000	
00000000	00000000	00000000	00000000	
00000000	00000000	00000000	00000000	
00000000	00000000	00000000	00000000	
00000000	00000000	00000000	00000000	
00000000	00000000	00000000	00000030	
----------------------------------------


********************************************************************************
********************************************************************************


----------------------------------------
Regs:
00000000	00000001	00000002	00000003	
00000004	00003f04	3f3f0000	00000001	
00003f04	00000000	00000000	00000000	
00000000	00000000	00000000	00000000	
00000000	00000000	00000000	00000000	
00000000	00000000	00000000	00000000	
00000000	00000000	00000000	00000000	
00000000	00000000	00000000	00000034	
----------------------------------------

----------------------------------------
Memory:
00000000	00000000	00003f04	00000000	
00000000	00000000	00000000	00000000	
00000000	00000000	00000000	00000000	
00000000	00000000	00000000	00000000	
00000000	00000000	00000000	00000000	
00000000	00000000	00000000	00000000	
00000000	00000000	00000000	00000000	
00000000	00000000	00000000	00000000	
----------------------------------------

----------------------------------------
PC:
        17
Instruction:
00100001010010101111111111111111
----------------------------------------



********************************************************************************
********************************************************************************


----------------------------------------
PC:
        18
Instruction:
10100000001010100000000000001110
----------------------------------------


----------------------------------------
Memory:
00000000	00000000	00003f04	00000000	
00000000	00000000	00000000	00000000	
00000000	00000000	00000000	00000000	
00000000	00000000	00000000	00000000	
00000000	00000000	00000000	00000000	
00000000	00000000	00000000	00000000	
00000000	00000000	00000000	00000000	
00000000	00000000	00000000	00000000	
----------------------------------------

----------------------------------------
Regs:
00000000	00000001	00000002	00000003	
00000004	00003f04	3f3f0000	00000001	
00003f04	00000000	ffffffff	00000000	
00000000	00000000	00000000	00000000	
00000000	00000000	00000000	00000000	
00000000	00000000	00000000	00000000	
00000000	00000000	00000000	00000000	
00000000	00000000	00000000	00000034	
----------------------------------------


********************************************************************************
********************************************************************************


----------------------------------------
Regs:
00000000	00000001	00000002	00000003	
00000004	00003f04	3f3f0000	00000001	
00003f04	00000000	ffffffff	00000000	
00000000	00000000	00000000	00000000	
00000000	00000000	00000000	00000000	
00000000	00000000	00000000	00000000	
00000000	00000000	00000000	00000000	
00000000	00000000	00000000	00000034	
----------------------------------------

----------------------------------------
Memory:
00000000	00000000	00003f04	ff000000	
00000000	00000000	00000000	00000000	
00000000	00000000	00000000	00000000	
00000000	00000000	00000000	00000000	
00000000	00000000	00000000	00000000	
00000000	00000000	00000000	00000000	
00000000	00000000	00000000	00000000	
00000000	00000000	00000000	00000000	
----------------------------------------

----------------------------------------
PC:
        19
Instruction:
10100100010010100000000000001010
----------------------------------------



********************************************************************************
********************************************************************************


----------------------------------------
PC:
        20
Instruction:
10000000001010100000000000001110
----------------------------------------


----------------------------------------
Memory:
00000000	00000000	00003f04	ff00ffff	
00000000	00000000	00000000	00000000	
00000000	00000000	00000000	00000000	
00000000	00000000	00000000	00000000	
00000000	00000000	00000000	00000000	
00000000	00000000	00000000	00000000	
00000000	00000000	00000000	00000000	
00000000	00000000	00000000	00000000	
----------------------------------------

----------------------------------------
Regs:
00000000	00000001	00000002	00000003	
00000004	00003f04	3f3f0000	00000001	
00003f04	00000000	ffffffff	00000000	
00000000	00000000	00000000	00000000	
00000000	00000000	00000000	00000000	
00000000	00000000	00000000	00000000	
00000000	00000000	00000000	00000000	
00000000	00000000	00000000	00000034	
----------------------------------------


********************************************************************************
********************************************************************************


----------------------------------------
Regs:
00000000	00000001	00000002	00000003	
00000004	00003f04	3f3f0000	00000001	
00003f04	00000000	ffffffff	00000000	
00000000	00000000	00000000	00000000	
00000000	00000000	00000000	00000000	
00000000	00000000	00000000	00000000	
00000000	00000000	00000000	00000000	
00000000	00000000	00000000	00000034	
----------------------------------------

----------------------------------------
Memory:
00000000	00000000	00003f04	ff00ffff	
00000000	00000000	00000000	00000000	
00000000	00000000	00000000	00000000	
00000000	00000000	00000000	00000000	
00000000	00000000	00000000	00000000	
00000000	00000000	00000000	00000000	
00000000	00000000	00000000	00000000	
00000000	00000000	00000000	00000000	
----------------------------------------

----------------------------------------
PC:
        21
Instruction:
10010000001010100000000000001110
----------------------------------------



********************************************************************************
********************************************************************************


----------------------------------------
PC:
        22
Instruction:
10000100010010100000000000001010
----------------------------------------


----------------------------------------
Memory:
00000000	00000000	00003f04	ff00ffff	
00000000	00000000	00000000	00000000	
00000000	00000000	00000000	00000000	
00000000	00000000	00000000	00000000	
00000000	00000000	00000000	00000000	
00000000	00000000	00000000	00000000	
00000000	00000000	00000000	00000000	
00000000	00000000	00000000	00000000	
----------------------------------------

----------------------------------------
Regs:
00000000	00000001	00000002	00000003	
00000004	00003f04	3f3f0000	00000001	
00003f04	00000000	000000ff	00000000	
00000000	00000000	00000000	00000000	
00000000	00000000	00000000	00000000	
00000000	00000000	00000000	00000000	
00000000	00000000	00000000	00000000	
00000000	00000000	00000000	00000034	
----------------------------------------


********************************************************************************
********************************************************************************


----------------------------------------
Regs:
00000000	00000001	00000002	00000003	
00000004	00003f04	3f3f0000	00000001	
00003f04	00000000	ffffffff	00000000	
00000000	00000000	00000000	00000000	
00000000	00000000	00000000	00000000	
00000000	00000000	00000000	00000000	
00000000	00000000	00000000	00000000	
00000000	00000000	00000000	00000034	
----------------------------------------

----------------------------------------
Memory:
00000000	00000000	00003f04	ff00ffff	
00000000	00000000	00000000	00000000	
00000000	00000000	00000000	00000000	
00000000	00000000	00000000	00000000	
00000000	00000000	00000000	00000000	
00000000	00000000	00000000	00000000	
00000000	00000000	00000000	00000000	
00000000	00000000	00000000	00000000	
----------------------------------------

----------------------------------------
PC:
        23
Instruction:
10010100010010100000000000001010
----------------------------------------



********************************************************************************
********************************************************************************


----------------------------------------
PC:
        24
Instruction:
00000011111000000000000000001000
----------------------------------------


----------------------------------------
Memory:
00000000	00000000	00003f04	ff00ffff	
00000000	00000000	00000000	00000000	
00000000	00000000	00000000	00000000	
00000000	00000000	00000000	00000000	
00000000	00000000	00000000	00000000	
00000000	00000000	00000000	00000000	
00000000	00000000	00000000	00000000	
00000000	00000000	00000000	00000000	
----------------------------------------

----------------------------------------
Regs:
00000000	00000001	00000002	00000003	
00000004	00003f04	3f3f0000	00000001	
00003f04	00000000	0000ffff	00000000	
00000000	00000000	00000000	00000000	
00000000	00000000	00000000	00000000	
00000000	00000000	00000000	00000000	
00000000	00000000	00000000	00000000	
00000000	00000000	00000000	00000034	
----------------------------------------


********************************************************************************
********************************************************************************

testbench.v:15: $finish called at 50 (1s)

----------------------------------------

----------------------------------------

----------------------------------------
